<?xml version="1.0" encoding="UTF-8"?>
<svg width="97px" height="97px" viewBox="0 0 97 97" version="1.1" xmlns="http://www.w3.org/2000/svg" 
xmlns:xlink="http://www.w3.org/1999/xlink">
    <title>Numero</title>
    <g  id="Versione-4" stroke="none" stroke-width="1" fill="none" fill-rule="evenodd">
        <g id="Home_" transform="translate(-279.000000, -853.000000)">
            <g id="Numero" transform="translate(279.000000, 853.000000)">
                <circle id="Oval" fill="#003173" cx="48.5" cy="48.5" r="48.5"></circle>
                <text id="1" font-family="Gotham-Black, Gotham, sans-serif" font-size="38" font-weight="700" fill="#FFFFFF">
                    <tspan x="40.482" y="62.5">1</tspan>
                </text>
            </g>
        </g>
    </g>
</svg>